# Beer data



## R Markdown


```
## # A tibble: 3,407 × 6
##                                            style styleId style_collapsed
##                                           <fctr>  <fctr>          <fctr>
##  1                                 Robust Porter      19          Porter
##  2                       American-Style Pale Ale      25        Pale Ale
##  3                       American-Style Pale Ale      25        Pale Ale
##  4       German-Style Kölsch / Köln-Style Kölsch      45          Kölsch
##  5                          Golden or Blonde Ale      36          Blonde
##  6 South German-Style Hefeweizen / Hefeweissbier      48           Wheat
##  7                       American-Style Pale Ale      25        Pale Ale
##  8       German-Style Kölsch / Köln-Style Kölsch      45          Kölsch
##  9             American-Style Cream Ale or Lager     109           Lager
## 10                 French & Belgian-Style Saison      72          Saison
## # ... with 3,397 more rows, and 3 more variables: abv <dbl>, ibu <dbl>,
## #   srm <dbl>
```
…
